2 semester/7.1 I2C-slave/cmake-build-default/labI2CSlave.vcd
$date
     May 14, 2021       12:04:04
$end

$version
 SystemC 2.3.3-Accellera --- Apr 30 2021 11:48:38
$end

$timescale
     1 ns
$end

$scope module SystemC $end
$var wire    1  aaaaa  clk       $end
$var wire    1  aaaab  reset       $end
$var wire    8  aaaac  data [7:0]  $end
$var wire    1  aaaad  valid       $end
$var wire    1  aaaae  scl       $end
$var wire    1  aaaaf  sda       $end
$var wire    1  aaaag  sda_m       $end
$var wire    1  aaaah  sda_o       $end
$upscope $end
$enddefinitions  $end

$comment
All initial values are dumped below at time 0 sec = 0 timescale units.
$end

$dumpvars
1aaaaa
1aaaab
b0 aaaac
0aaaad
1aaaae
1aaaaf
0aaaag
1aaaah
$end

#5
0aaaaa

#10
1aaaaa

#15
0aaaaa

#20
1aaaaa

#25
0aaaaa

#30
1aaaaa

#35
0aaaaa

#40
1aaaaa

#45
0aaaaa

#50
1aaaaa
0aaaaf

#55
0aaaaa

#60
1aaaaa

#65
0aaaaa

#70
1aaaaa

#75
0aaaaa

#80
1aaaaa

#85
0aaaaa

#90
1aaaaa

#95
0aaaaa

#100
1aaaaa
0aaaae

#105
0aaaaa

#110
1aaaaa

#115
0aaaaa

#120
1aaaaa

#125
0aaaaa

#130
1aaaaa

#135
0aaaaa

#140
1aaaaa

#145
0aaaaa

#150
1aaaaa
0aaaab

#155
0aaaaa

#160
1aaaaa

#165
0aaaaa

#170
1aaaaa

#175
0aaaaa

#180
1aaaaa

#185
0aaaaa

#190
1aaaaa

#195
0aaaaa

#200
1aaaaa

#205
0aaaaa

#210
1aaaaa

#215
0aaaaa

#220
1aaaaa

#225
0aaaaa

#230
1aaaaa

#235
0aaaaa

#240
1aaaaa

#245
0aaaaa

#250
1aaaaa

#255
0aaaaa

#260
1aaaaa

#265
0aaaaa

#270
1aaaaa

#275
0aaaaa

#280
1aaaaa

#285
0aaaaa

#290
1aaaaa

#295
0aaaaa

#300
1aaaaa
1aaaae

#305
0aaaaa

#310
1aaaaa

#315
0aaaaa

#320
1aaaaa

#325
0aaaaa

#330
1aaaaa

#335
0aaaaa

#340
1aaaaa

#345
0aaaaa

#350
1aaaaa
0aaaae
1aaaaf

#355
0aaaaa

#360
1aaaaa

#365
0aaaaa

#370
1aaaaa

#375
0aaaaa

#380
1aaaaa

#385
0aaaaa

#390
1aaaaa

#395
0aaaaa

#400
1aaaaa
1aaaae

#405
0aaaaa

#410
1aaaaa

#415
0aaaaa

#420
1aaaaa

#425
0aaaaa

#430
1aaaaa

#435
0aaaaa

#440
1aaaaa

#445
0aaaaa

#450
1aaaaa
0aaaae
0aaaaf

#455
0aaaaa

#460
1aaaaa

#465
0aaaaa

#470
1aaaaa

#475
0aaaaa

#480
1aaaaa

#485
0aaaaa

#490
1aaaaa

#495
0aaaaa

#500
1aaaaa
1aaaae

#505
0aaaaa

#510
1aaaaa

#515
0aaaaa

#520
1aaaaa

#525
0aaaaa

#530
1aaaaa

#535
0aaaaa

#540
1aaaaa

#545
0aaaaa

#550
1aaaaa
0aaaae

#555
0aaaaa

#560
1aaaaa

#565
0aaaaa

#570
1aaaaa

#575
0aaaaa

#580
1aaaaa

#585
0aaaaa

#590
1aaaaa

#595
0aaaaa

#600
1aaaaa
1aaaae

#605
0aaaaa

#610
1aaaaa

#615
0aaaaa

#620
1aaaaa

#625
0aaaaa

#630
1aaaaa

#635
0aaaaa

#640
1aaaaa

#645
0aaaaa

#650
1aaaaa
0aaaae

#655
0aaaaa

#660
1aaaaa

#665
0aaaaa

#670
1aaaaa

#675
0aaaaa

#680
1aaaaa

#685
0aaaaa

#690
1aaaaa

#695
0aaaaa

#700
1aaaaa
1aaaae

#705
0aaaaa

#710
1aaaaa

#715
0aaaaa

#720
1aaaaa

#725
0aaaaa

#730
1aaaaa

#735
0aaaaa

#740
1aaaaa

#745
0aaaaa

#750
1aaaaa
0aaaae

#755
0aaaaa

#760
1aaaaa

#765
0aaaaa

#770
1aaaaa

#775
0aaaaa

#780
1aaaaa

#785
0aaaaa

#790
1aaaaa

#795
0aaaaa

#800
1aaaaa
1aaaae

#805
0aaaaa

#810
1aaaaa

#815
0aaaaa

#820
1aaaaa

#825
0aaaaa

#830
1aaaaa

#835
0aaaaa

#840
1aaaaa

#845
0aaaaa

#850
1aaaaa
0aaaae
1aaaaf

#855
0aaaaa

#860
1aaaaa

#865
0aaaaa

#870
1aaaaa

#875
0aaaaa

#880
1aaaaa

#885
0aaaaa

#890
1aaaaa

#895
0aaaaa

#900
1aaaaa
1aaaae

#905
0aaaaa

#910
1aaaaa

#915
0aaaaa

#920
1aaaaa

#925
0aaaaa

#930
1aaaaa

#935
0aaaaa

#940
1aaaaa

#945
0aaaaa

#950
1aaaaa
0aaaae
0aaaaf

#955
0aaaaa

#960
1aaaaa

#965
0aaaaa

#970
1aaaaa

#975
0aaaaa

#980
1aaaaa

#985
0aaaaa

#990
1aaaaa

#995
0aaaaa

#1000
1aaaaa
1aaaae

#1005
0aaaaa

#1010
1aaaaa

#1015
0aaaaa

#1020
1aaaaa

#1025
0aaaaa

#1030
1aaaaa

#1035
0aaaaa

#1040
1aaaaa

#1045
0aaaaa

#1050
1aaaaa
0aaaae
1aaaag
0aaaah

#1055
0aaaaa

#1060
1aaaaa

#1065
0aaaaa

#1070
1aaaaa

#1075
0aaaaa

#1080
1aaaaa

#1085
0aaaaa

#1090
1aaaaa

#1095
0aaaaa

#1100
1aaaaa
1aaaae

#1105
0aaaaa

#1110
1aaaaa

#1115
0aaaaa

#1120
1aaaaa

#1125
0aaaaa

#1130
1aaaaa

#1135
0aaaaa

#1140
1aaaaa

#1145
0aaaaa

#1150
1aaaaa
0aaaae
0aaaag
1aaaah

#1155
0aaaaa

#1160
1aaaaa

#1165
0aaaaa

#1170
1aaaaa

#1175
0aaaaa

#1180
1aaaaa

#1185
0aaaaa

#1190
1aaaaa

#1195
0aaaaa

#1200
1aaaaa
b1000010 aaaac
1aaaad
1aaaae

#1205
0aaaaa

#1210
1aaaaa

#1215
0aaaaa

#1220
1aaaaa

#1225
0aaaaa

#1230
1aaaaa

#1235
0aaaaa

#1240
1aaaaa

#1245
0aaaaa

#1250
1aaaaa

#1255
0aaaaa

#1260
1aaaaa

#1265
0aaaaa

#1270
1aaaaa

#1275
0aaaaa

#1280
1aaaaa

#1285
0aaaaa

#1290
1aaaaa

#1295
0aaaaa

#1300
1aaaaa
b0 aaaac
0aaaad
1aaaaf

#1305
0aaaaa

#1310
1aaaaa

#1315
0aaaaa

#1320
1aaaaa

#1325
0aaaaa

#1330
1aaaaa

#1335
0aaaaa

#1340
1aaaaa

#1345
0aaaaa

#1350
1aaaaa

#1355
0aaaaa

#1360
1aaaaa

#1365
0aaaaa

#1370
1aaaaa

#1375
0aaaaa

#1380
1aaaaa

#1385
0aaaaa

#1390
1aaaaa

#1395
0aaaaa

#1400
1aaaaa
0aaaaf

#1405
0aaaaa

#1410
1aaaaa

#1415
0aaaaa

#1420
1aaaaa

#1425
0aaaaa

#1430
1aaaaa

#1435
0aaaaa

#1440
1aaaaa

#1445
0aaaaa

#1450
1aaaaa
0aaaae

#1455
0aaaaa

#1460
1aaaaa

#1465
0aaaaa

#1470
1aaaaa

#1475
0aaaaa

#1480
1aaaaa

#1485
0aaaaa

#1490
1aaaaa

#1495
0aaaaa

#1500
1aaaaa
1aaaae

#1505
0aaaaa

#1510
1aaaaa

#1515
0aaaaa

#1520
1aaaaa

#1525
0aaaaa

#1530
1aaaaa

#1535
0aaaaa

#1540
1aaaaa

#1545
0aaaaa

#1550
1aaaaa
0aaaae
1aaaaf

#1555
0aaaaa

#1560
1aaaaa

#1565
0aaaaa

#1570
1aaaaa

#1575
0aaaaa

#1580
1aaaaa

#1585
0aaaaa

#1590
1aaaaa

#1595
0aaaaa

#1600
1aaaaa
1aaaae

#1605
0aaaaa

#1610
1aaaaa

#1615
0aaaaa

#1620
1aaaaa

#1625
0aaaaa

#1630
1aaaaa

#1635
0aaaaa

#1640
1aaaaa

#1645
0aaaaa

#1650
1aaaaa
0aaaae
0aaaaf

#1655
0aaaaa

#1660
1aaaaa

#1665
0aaaaa

#1670
1aaaaa

#1675
0aaaaa

#1680
1aaaaa

#1685
0aaaaa

#1690
1aaaaa

#1695
0aaaaa

#1700
1aaaaa
1aaaae

#1705
0aaaaa

#1710
1aaaaa

#1715
0aaaaa

#1720
1aaaaa

#1725
0aaaaa

#1730
1aaaaa

#1735
0aaaaa

#1740
1aaaaa

#1745
0aaaaa

#1750
1aaaaa
0aaaae

#1755
0aaaaa

#1760
1aaaaa

#1765
0aaaaa

#1770
1aaaaa

#1775
0aaaaa

#1780
1aaaaa

#1785
0aaaaa

#1790
1aaaaa

#1795
0aaaaa

#1800
1aaaaa
1aaaae

#1805
0aaaaa

#1810
1aaaaa

#1815
0aaaaa

#1820
1aaaaa

#1825
0aaaaa

#1830
1aaaaa

#1835
0aaaaa

#1840
1aaaaa

#1845
0aaaaa

#1850
1aaaaa
0aaaae

#1855
0aaaaa

#1860
1aaaaa

#1865
0aaaaa

#1870
1aaaaa

#1875
0aaaaa

#1880
1aaaaa

#1885
0aaaaa

#1890
1aaaaa

#1895
0aaaaa

#1900
1aaaaa
1aaaae

#1905
0aaaaa

#1910
1aaaaa

#1915
0aaaaa

#1920
1aaaaa

#1925
0aaaaa

#1930
1aaaaa

#1935
0aaaaa

#1940
1aaaaa

#1945
0aaaaa

#1950
1aaaaa
0aaaae
1aaaaf

#1955
0aaaaa

#1960
1aaaaa

#1965
0aaaaa

#1970
1aaaaa

#1975
0aaaaa

#1980
1aaaaa

#1985
0aaaaa

#1990
1aaaaa

#1995
0aaaaa

#2000
1aaaaa
1aaaae

#2005
0aaaaa

#2010
1aaaaa

#2015
0aaaaa

#2020
1aaaaa

#2025
0aaaaa

#2030
1aaaaa

#2035
0aaaaa

#2040
1aaaaa

#2045
0aaaaa

#2050
1aaaaa
0aaaae
0aaaaf

#2055
0aaaaa

#2060
1aaaaa

#2065
0aaaaa

#2070
1aaaaa

#2075
0aaaaa

#2080
1aaaaa

#2085
0aaaaa

#2090
1aaaaa

#2095
0aaaaa

#2100
1aaaaa
1aaaae

#2105
0aaaaa

#2110
1aaaaa

#2115
0aaaaa

#2120
1aaaaa

#2125
0aaaaa

#2130
1aaaaa

#2135
0aaaaa

#2140
1aaaaa

#2145
0aaaaa

#2150
1aaaaa
0aaaae
1aaaaf

#2155
0aaaaa

#2160
1aaaaa

#2165
0aaaaa

#2170
1aaaaa

#2175
0aaaaa

#2180
1aaaaa

#2185
0aaaaa

#2190
1aaaaa

#2195
0aaaaa

#2200
1aaaaa
1aaaae

#2205
0aaaaa

#2210
1aaaaa

#2215
0aaaaa

#2220
1aaaaa

#2225
0aaaaa

#2230
1aaaaa

#2235
0aaaaa

#2240
1aaaaa

#2245
0aaaaa

#2250
1aaaaa
0aaaae
0aaaaf
1aaaag
0aaaah

#2255
0aaaaa

#2260
1aaaaa

#2265
0aaaaa

#2270
1aaaaa

#2275
0aaaaa

#2280
1aaaaa

#2285
0aaaaa

#2290
1aaaaa

#2295
0aaaaa

#2300
1aaaaa
1aaaae

#2305
0aaaaa

#2310
1aaaaa

#2315
0aaaaa

#2320
1aaaaa

#2325
0aaaaa

#2330
1aaaaa

#2335
0aaaaa

#2340
1aaaaa

#2345
0aaaaa

#2350
1aaaaa
0aaaae
0aaaag
1aaaah

#2355
0aaaaa

#2360
1aaaaa

#2365
0aaaaa

#2370
1aaaaa

#2375
0aaaaa

#2380
1aaaaa

#2385
0aaaaa

#2390
1aaaaa

#2395
0aaaaa

#2400
1aaaaa
b1000101 aaaac
1aaaad
1aaaae

#2405
0aaaaa

#2410
1aaaaa

#2415
0aaaaa

#2420
1aaaaa

#2425
0aaaaa

#2430
1aaaaa

#2435
0aaaaa

#2440
1aaaaa

#2445
0aaaaa

#2450
1aaaaa

#2455
0aaaaa

#2460
1aaaaa

#2465
0aaaaa

#2470
1aaaaa

#2475
0aaaaa

#2480
1aaaaa

#2485
0aaaaa

#2490
1aaaaa

#2495
0aaaaa

#2500
1aaaaa
b0 aaaac
0aaaad
1aaaaf

#2505
0aaaaa

#2510
1aaaaa

#2515
0aaaaa

#2520
1aaaaa

#2525
0aaaaa

#2530
1aaaaa

#2535
0aaaaa

#2540
1aaaaa

#2545
0aaaaa

#2550
1aaaaa

#2555
0aaaaa

#2560
1aaaaa

#2565
0aaaaa

#2570
1aaaaa

#2575
0aaaaa

#2580
1aaaaa

#2585
0aaaaa

#2590
1aaaaa

#2595
0aaaaa

#2600
1aaaaa
0aaaaf

#2605
0aaaaa

#2610
1aaaaa

#2615
0aaaaa

#2620
1aaaaa

#2625
0aaaaa

#2630
1aaaaa

#2635
0aaaaa

#2640
1aaaaa

#2645
0aaaaa

#2650
1aaaaa
0aaaae

#2655
0aaaaa

#2660
1aaaaa

#2665
0aaaaa

#2670
1aaaaa

#2675
0aaaaa

#2680
1aaaaa

#2685
0aaaaa

#2690
1aaaaa

#2695
0aaaaa

#2700
1aaaaa
1aaaae

#2705
0aaaaa

#2710
1aaaaa

#2715
0aaaaa

#2720
1aaaaa

#2725
0aaaaa

#2730
1aaaaa

#2735
0aaaaa

#2740
1aaaaa

#2745
0aaaaa

#2750
1aaaaa
0aaaae
1aaaaf

#2755
0aaaaa

#2760
1aaaaa

#2765
0aaaaa

#2770
1aaaaa

#2775
0aaaaa

#2780
1aaaaa

#2785
0aaaaa

#2790
1aaaaa

#2795
0aaaaa

#2800
1aaaaa
1aaaae

#2805
0aaaaa

#2810
1aaaaa

#2815
0aaaaa

#2820
1aaaaa

#2825
0aaaaa

#2830
1aaaaa

#2835
0aaaaa

#2840
1aaaaa

#2845
0aaaaa

#2850
1aaaaa
0aaaae
0aaaaf

#2855
0aaaaa

#2860
1aaaaa

#2865
0aaaaa

#2870
1aaaaa

#2875
0aaaaa

#2880
1aaaaa

#2885
0aaaaa

#2890
1aaaaa

#2895
0aaaaa

#2900
1aaaaa
1aaaae

#2905
0aaaaa

#2910
1aaaaa

#2915
0aaaaa

#2920
1aaaaa

#2925
0aaaaa

#2930
1aaaaa

#2935
0aaaaa

#2940
1aaaaa

#2945
0aaaaa

#2950
1aaaaa
0aaaae

#2955
0aaaaa

#2960
1aaaaa

#2965
0aaaaa

#2970
1aaaaa

#2975
0aaaaa

#2980
1aaaaa

#2985
0aaaaa

#2990
1aaaaa

#2995
0aaaaa

#3000
1aaaaa
1aaaae

#3005
0aaaaa

#3010
1aaaaa

#3015
0aaaaa

#3020
1aaaaa

#3025
0aaaaa

#3030
1aaaaa

#3035
0aaaaa

#3040
1aaaaa

#3045
0aaaaa

#3050
1aaaaa
0aaaae
1aaaaf

#3055
0aaaaa

#3060
1aaaaa

#3065
0aaaaa

#3070
1aaaaa

#3075
0aaaaa

#3080
1aaaaa

#3085
0aaaaa

#3090
1aaaaa

#3095
0aaaaa

#3100
1aaaaa
1aaaae

#3105
0aaaaa

#3110
1aaaaa

#3115
0aaaaa

#3120
1aaaaa

#3125
0aaaaa

#3130
1aaaaa

#3135
0aaaaa

#3140
1aaaaa

#3145
0aaaaa

#3150
1aaaaa
0aaaae
0aaaaf

#3155
0aaaaa

#3160
1aaaaa

#3165
0aaaaa

#3170
1aaaaa

#3175
0aaaaa

#3180
1aaaaa

#3185
0aaaaa

#3190
1aaaaa

#3195
0aaaaa

#3200
1aaaaa
1aaaae

#3205
0aaaaa

#3210
1aaaaa

#3215
0aaaaa

#3220
1aaaaa

#3225
0aaaaa

#3230
1aaaaa

#3235
0aaaaa

#3240
1aaaaa

#3245
0aaaaa

#3250
1aaaaa
0aaaae

#3255
0aaaaa

#3260
1aaaaa

#3265
0aaaaa

#3270
1aaaaa

#3275
0aaaaa

#3280
1aaaaa

#3285
0aaaaa

#3290
1aaaaa

#3295
0aaaaa

#3300
1aaaaa
1aaaae

#3305
0aaaaa

#3310
1aaaaa

#3315
0aaaaa

#3320
1aaaaa

#3325
0aaaaa

#3330
1aaaaa

#3335
0aaaaa

#3340
1aaaaa

#3345
0aaaaa

#3350
1aaaaa
0aaaae

#3355
0aaaaa

#3360
1aaaaa

#3365
0aaaaa

#3370
1aaaaa

#3375
0aaaaa

#3380
1aaaaa

#3385
0aaaaa

#3390
1aaaaa

#3395
0aaaaa

#3400
1aaaaa
1aaaae

#3405
0aaaaa

#3410
1aaaaa

#3415
0aaaaa

#3420
1aaaaa

#3425
0aaaaa

#3430
1aaaaa

#3435
0aaaaa

#3440
1aaaaa

#3445
0aaaaa

#3450
1aaaaa
0aaaae
1aaaag
0aaaah

#3455
0aaaaa

#3460
1aaaaa

#3465
0aaaaa

#3470
1aaaaa

#3475
0aaaaa

#3480
1aaaaa

#3485
0aaaaa

#3490
1aaaaa

#3495
0aaaaa

#3500
1aaaaa
1aaaae

#3505
0aaaaa

#3510
1aaaaa

#3515
0aaaaa

#3520
1aaaaa

#3525
0aaaaa

#3530
1aaaaa

#3535
0aaaaa

#3540
1aaaaa

#3545
0aaaaa

#3550
1aaaaa
0aaaae
0aaaag
1aaaah

#3555
0aaaaa

#3560
1aaaaa

#3565
0aaaaa

#3570
1aaaaa

#3575
0aaaaa

#3580
1aaaaa

#3585
0aaaaa

#3590
1aaaaa

#3595
0aaaaa

#3600
1aaaaa
b1001000 aaaac
1aaaad
1aaaae

#3605
0aaaaa

#3610
1aaaaa

#3615
0aaaaa

#3620
1aaaaa

#3625
0aaaaa

#3630
1aaaaa

#3635
0aaaaa

#3640
1aaaaa

#3645
0aaaaa

#3650
1aaaaa

#3655
0aaaaa

#3660
1aaaaa

#3665
0aaaaa

#3670
1aaaaa

#3675
0aaaaa

#3680
1aaaaa

#3685
0aaaaa

#3690
1aaaaa

#3695
0aaaaa

#3700
1aaaaa
b0 aaaac
0aaaad
1aaaaf

#3705
0aaaaa

#3710
1aaaaa

#3715
0aaaaa

#3720
1aaaaa

#3725
0aaaaa

#3730
1aaaaa

#3735
0aaaaa

#3740
1aaaaa

#3745
0aaaaa

#3750
1aaaaa

#3755
0aaaaa

#3760
1aaaaa

#3765
0aaaaa

#3770
1aaaaa

#3775
0aaaaa

#3780
1aaaaa

#3785
0aaaaa

#3790
1aaaaa

#3795
0aaaaa

#3800
1aaaaa
0aaaaf

#3805
0aaaaa

#3810
1aaaaa

#3815
0aaaaa

#3820
1aaaaa

#3825
0aaaaa

#3830
1aaaaa

#3835
0aaaaa

#3840
1aaaaa

#3845
0aaaaa

#3850
1aaaaa
0aaaae

#3855
0aaaaa

#3860
1aaaaa

#3865
0aaaaa

#3870
1aaaaa

#3875
0aaaaa

#3880
1aaaaa

#3885
0aaaaa

#3890
1aaaaa

#3895
0aaaaa

#3900
1aaaaa
1aaaae

#3905
0aaaaa

#3910
1aaaaa

#3915
0aaaaa

#3920
1aaaaa

#3925
0aaaaa

#3930
1aaaaa

#3935
0aaaaa

#3940
1aaaaa

#3945
0aaaaa

#3950
1aaaaa
0aaaae
1aaaaf

#3955
0aaaaa

#3960
1aaaaa

#3965
0aaaaa

#3970
1aaaaa

#3975
0aaaaa

#3980
1aaaaa

#3985
0aaaaa

#3990
1aaaaa

#3995
0aaaaa

#4000
1aaaaa
1aaaae

#4005
0aaaaa

#4010
1aaaaa

#4015
0aaaaa

#4020
1aaaaa

#4025
0aaaaa

#4030
1aaaaa

#4035
0aaaaa

#4040
1aaaaa

#4045
0aaaaa

#4050
1aaaaa
0aaaae
0aaaaf

#4055
0aaaaa

#4060
1aaaaa

#4065
0aaaaa

#4070
1aaaaa

#4075
0aaaaa

#4080
1aaaaa

#4085
0aaaaa

#4090
1aaaaa

#4095
0aaaaa

#4100
1aaaaa
1aaaae

#4105
0aaaaa

#4110
1aaaaa

#4115
0aaaaa

#4120
1aaaaa

#4125
0aaaaa

#4130
1aaaaa

#4135
0aaaaa

#4140
1aaaaa

#4145
0aaaaa

#4150
1aaaaa
0aaaae

#4155
0aaaaa

#4160
1aaaaa

#4165
0aaaaa

#4170
1aaaaa

#4175
0aaaaa

#4180
1aaaaa

#4185
0aaaaa

#4190
1aaaaa

#4195
0aaaaa

#4200
1aaaaa
1aaaae

#4205
0aaaaa

#4210
1aaaaa

#4215
0aaaaa

#4220
1aaaaa

#4225
0aaaaa

#4230
1aaaaa

#4235
0aaaaa

#4240
1aaaaa

#4245
0aaaaa

#4250
1aaaaa
0aaaae
1aaaaf

#4255
0aaaaa

#4260
1aaaaa

#4265
0aaaaa

#4270
1aaaaa

#4275
0aaaaa

#4280
1aaaaa

#4285
0aaaaa

#4290
1aaaaa

#4295
0aaaaa

#4300
1aaaaa
1aaaae

#4305
0aaaaa

#4310
1aaaaa

#4315
0aaaaa

#4320
1aaaaa

#4325
0aaaaa

#4330
1aaaaa

#4335
0aaaaa

#4340
1aaaaa

#4345
0aaaaa

#4350
1aaaaa
0aaaae
0aaaaf

#4355
0aaaaa

#4360
1aaaaa

#4365
0aaaaa

#4370
1aaaaa

#4375
0aaaaa

#4380
1aaaaa

#4385
0aaaaa

#4390
1aaaaa

#4395
0aaaaa

#4400
1aaaaa
1aaaae

#4405
0aaaaa

#4410
1aaaaa

#4415
0aaaaa

#4420
1aaaaa

#4425
0aaaaa

#4430
1aaaaa

#4435
0aaaaa

#4440
1aaaaa

#4445
0aaaaa

#4450
1aaaaa
0aaaae
1aaaaf

#4455
0aaaaa

#4460
1aaaaa

#4465
0aaaaa

#4470
1aaaaa

#4475
0aaaaa

#4480
1aaaaa

#4485
0aaaaa

#4490
1aaaaa

#4495
0aaaaa

#4500
1aaaaa
1aaaae

#4505
0aaaaa

#4510
1aaaaa

#4515
0aaaaa

#4520
1aaaaa

#4525
0aaaaa

#4530
1aaaaa

#4535
0aaaaa

#4540
1aaaaa

#4545
0aaaaa

#4550
1aaaaa
0aaaae

#4555
0aaaaa

#4560
1aaaaa

#4565
0aaaaa

#4570
1aaaaa

#4575
0aaaaa

#4580
1aaaaa

#4585
0aaaaa

#4590
1aaaaa

#4595
0aaaaa

#4600
1aaaaa
1aaaae

#4605
0aaaaa

#4610
1aaaaa

#4615
0aaaaa

#4620
1aaaaa

#4625
0aaaaa

#4630
1aaaaa

#4635
0aaaaa

#4640
1aaaaa

#4645
0aaaaa

#4650
1aaaaa
0aaaae
0aaaaf
1aaaag
0aaaah

#4655
0aaaaa

#4660
1aaaaa

#4665
0aaaaa

#4670
1aaaaa

#4675
0aaaaa

#4680
1aaaaa

#4685
0aaaaa

#4690
1aaaaa

#4695
0aaaaa

#4700
1aaaaa
1aaaae

#4705
0aaaaa

#4710
1aaaaa

#4715
0aaaaa

#4720
1aaaaa

#4725
0aaaaa

#4730
1aaaaa

#4735
0aaaaa

#4740
1aaaaa

#4745
0aaaaa

#4750
1aaaaa
0aaaae
0aaaag
1aaaah

#4755
0aaaaa

#4760
1aaaaa

#4765
0aaaaa

#4770
1aaaaa

#4775
0aaaaa

#4780
1aaaaa

#4785
0aaaaa

#4790
1aaaaa

#4795
0aaaaa

#4800
1aaaaa
b1001011 aaaac
1aaaad
1aaaae

#4805
0aaaaa

#4810
1aaaaa

#4815
0aaaaa

#4820
1aaaaa

#4825
0aaaaa

#4830
1aaaaa

#4835
0aaaaa

#4840
1aaaaa

#4845
0aaaaa

#4850
1aaaaa

#4855
0aaaaa

#4860
1aaaaa

#4865
0aaaaa

#4870
1aaaaa

#4875
0aaaaa

#4880
1aaaaa

#4885
0aaaaa

#4890
1aaaaa

#4895
0aaaaa

#4900
1aaaaa
b0 aaaac
0aaaad
1aaaaf

#4905
0aaaaa

#4910
1aaaaa

#4915
0aaaaa

#4920
1aaaaa

#4925
0aaaaa

#4930
1aaaaa

#4935
0aaaaa

#4940
1aaaaa

#4945
0aaaaa

#4950
1aaaaa

#4955
0aaaaa

#4960
1aaaaa

#4965
0aaaaa

#4970
1aaaaa

#4975
0aaaaa

#4980
1aaaaa

#4985
0aaaaa

#4990
1aaaaa

#4995
0aaaaa

#5000
1aaaaa
0aaaaf

#5005
0aaaaa

#5010
1aaaaa

#5015
0aaaaa

#5020
1aaaaa

#5025
0aaaaa

#5030
1aaaaa

#5035
0aaaaa

#5040
1aaaaa

#5045
0aaaaa

#5050
1aaaaa
0aaaae

#5055
0aaaaa

#5060
1aaaaa

#5065
0aaaaa

#5070
1aaaaa

#5075
0aaaaa

#5080
1aaaaa

#5085
0aaaaa

#5090
1aaaaa

#5095
0aaaaa

#5100
1aaaaa
1aaaae

#5105
0aaaaa

#5110
1aaaaa

#5115
0aaaaa

#5120
1aaaaa

#5125
0aaaaa

#5130
1aaaaa

#5135
0aaaaa

#5140
1aaaaa

#5145
0aaaaa

#5150
1aaaaa
0aaaae
1aaaaf

#5155
0aaaaa

#5160
1aaaaa

#5165
0aaaaa

#5170
1aaaaa

#5175
0aaaaa

#5180
1aaaaa

#5185
0aaaaa

#5190
1aaaaa

#5195
0aaaaa

#5200
1aaaaa
1aaaae

#5205
0aaaaa

#5210
1aaaaa

#5215
0aaaaa

#5220
1aaaaa

#5225
0aaaaa

#5230
1aaaaa

#5235
0aaaaa

#5240
1aaaaa

#5245
0aaaaa

#5250
1aaaaa
0aaaae
0aaaaf

#5255
0aaaaa

#5260
1aaaaa

#5265
0aaaaa

#5270
1aaaaa

#5275
0aaaaa

#5280
1aaaaa

#5285
0aaaaa

#5290
1aaaaa

#5295
0aaaaa

#5300
1aaaaa
1aaaae

#5305
0aaaaa

#5310
1aaaaa

#5315
0aaaaa

#5320
1aaaaa

#5325
0aaaaa

#5330
1aaaaa

#5335
0aaaaa

#5340
1aaaaa

#5345
0aaaaa

#5350
1aaaaa
0aaaae

#5355
0aaaaa

#5360
1aaaaa

#5365
0aaaaa

#5370
1aaaaa

#5375
0aaaaa

#5380
1aaaaa

#5385
0aaaaa

#5390
1aaaaa

#5395
0aaaaa

#5400
1aaaaa
1aaaae

#5405
0aaaaa

#5410
1aaaaa

#5415
0aaaaa

#5420
1aaaaa

#5425
0aaaaa

#5430
1aaaaa

#5435
0aaaaa

#5440
1aaaaa

#5445
0aaaaa

#5450
1aaaaa
0aaaae
1aaaaf

#5455
0aaaaa

#5460
1aaaaa

#5465
0aaaaa

#5470
1aaaaa

#5475
0aaaaa

#5480
1aaaaa

#5485
0aaaaa

#5490
1aaaaa

#5495
0aaaaa

#5500
1aaaaa
1aaaae

#5505
0aaaaa

#5510
1aaaaa

#5515
0aaaaa

#5520
1aaaaa

#5525
0aaaaa

#5530
1aaaaa

#5535
0aaaaa

#5540
1aaaaa

#5545
0aaaaa

#5550
1aaaaa
0aaaae

#5555
0aaaaa

#5560
1aaaaa

#5565
0aaaaa

#5570
1aaaaa

#5575
0aaaaa

#5580
1aaaaa

#5585
0aaaaa

#5590
1aaaaa

#5595
0aaaaa

#5600
1aaaaa
1aaaae

#5605
0aaaaa

#5610
1aaaaa

#5615
0aaaaa

#5620
1aaaaa

#5625
0aaaaa

#5630
1aaaaa

#5635
0aaaaa

#5640
1aaaaa

#5645
0aaaaa

#5650
1aaaaa
0aaaae

#5655
0aaaaa

#5660
1aaaaa

#5665
0aaaaa

#5670
1aaaaa

#5675
0aaaaa

#5680
1aaaaa

#5685
0aaaaa

#5690
1aaaaa

#5695
0aaaaa

#5700
1aaaaa
1aaaae

#5705
0aaaaa

#5710
1aaaaa

#5715
0aaaaa

#5720
1aaaaa

#5725
0aaaaa

#5730
1aaaaa

#5735
0aaaaa

#5740
1aaaaa

#5745
0aaaaa

#5750
1aaaaa
0aaaae
0aaaaf

#5755
0aaaaa

#5760
1aaaaa

#5765
0aaaaa

#5770
1aaaaa

#5775
0aaaaa

#5780
1aaaaa

#5785
0aaaaa

#5790
1aaaaa

#5795
0aaaaa

#5800
1aaaaa
1aaaae

#5805
0aaaaa

#5810
1aaaaa

#5815
0aaaaa

#5820
1aaaaa

#5825
0aaaaa

#5830
1aaaaa

#5835
0aaaaa

#5840
1aaaaa

#5845
0aaaaa

#5850
1aaaaa
0aaaae
1aaaag
0aaaah

#5855
0aaaaa

#5860
1aaaaa

#5865
0aaaaa

#5870
1aaaaa

#5875
0aaaaa

#5880
1aaaaa

#5885
0aaaaa

#5890
1aaaaa

#5895
0aaaaa

#5900
1aaaaa
1aaaae

#5905
0aaaaa

#5910
1aaaaa

#5915
0aaaaa

#5920
1aaaaa

#5925
0aaaaa

#5930
1aaaaa

#5935
0aaaaa

#5940
1aaaaa

#5945
0aaaaa

#5950
1aaaaa
0aaaae
0aaaag
1aaaah

#5955
0aaaaa

#5960
1aaaaa

#5965
0aaaaa

#5970
1aaaaa

#5975
0aaaaa

#5980
1aaaaa

#5985
0aaaaa

#5990
1aaaaa

#5995
0aaaaa

#6000
1aaaaa
b1001110 aaaac
1aaaad
1aaaae

#6005
0aaaaa

#6010
1aaaaa

#6015
0aaaaa

#6020
1aaaaa

#6025
0aaaaa

#6030
1aaaaa

#6035
0aaaaa

#6040
1aaaaa

#6045
0aaaaa

#6050
1aaaaa

#6055
0aaaaa

#6060
1aaaaa

#6065
0aaaaa

#6070
1aaaaa

#6075
0aaaaa

#6080
1aaaaa

#6085
0aaaaa

#6090
1aaaaa

#6095
0aaaaa

#6100
1aaaaa
b0 aaaac
0aaaad
1aaaaf

#6105
0aaaaa

#6110
1aaaaa

#6115
0aaaaa

#6120
1aaaaa

#6125
0aaaaa

#6130
1aaaaa

#6135
0aaaaa

#6140
1aaaaa

#6145
0aaaaa

#6150
1aaaaa

#6155
0aaaaa

#6160
1aaaaa

#6165
0aaaaa

#6170
1aaaaa

#6175
0aaaaa

#6180
1aaaaa

#6185
0aaaaa

#6190
1aaaaa

#6195
0aaaaa

#6200
1aaaaa
0aaaaf

#6205
0aaaaa

#6210
1aaaaa

#6215
0aaaaa

#6220
1aaaaa

